…
#After using `as.numeric`to logical, character, and factor variables, it helps us to find the mean on factor vectors. 
#The mean of logical variable changed from 0.6 to 1.9 since after using as.numeric the logical variable become only 1 or 0 (binary) hence the it is the mean of the binary result. 
#For character variable, it still cannot get the mean and the `as numeric` function does not work on charter variable. 
#For factor vectors, since it has three levels, by `as numeric` function it becomes to 1,2,3, and then mean is actually group of 1,2,3.
```

\#\#problem2

``` r
data("penguins", package = "palmerpenguins")
penguins
```

    ## # A tibble: 344 × 8
    ##    species island    bill_length_mm bill_depth_mm flipper_length_mm body_mass_g
    ##    <fct>   <fct>              <dbl>         <dbl>             <int>       <int>
    ##  1 Adelie  Torgersen           39.1          18.7               181        3750
    ##  2 Adelie  Torgersen           39.5          17.4               186        3800
    ##  3 Adelie  Torgersen           40.3          18                 195        3250
    ##  4 Adelie  Torgersen           NA            NA                  NA          NA
    ##  5 Adelie  Torgersen           36.7          19.3               193        3450
    ##  6 Adelie  Torgersen           39.3          20.6               190        3650
    ##  7 Adelie  Torgersen           38.9          17.8               181        3625
    ##  8 Adelie  Torgersen           39.2          19.6               195        4675
    ##  9 Adelie  Torgersen           34.1          18.1               193        3475
    ## 10 Adelie  Torgersen           42            20.2               190        4250
    ## # … with 334 more rows, and 2 more variables: sex <fct>, year <int>
…
